<?xml version="1.0" encoding="utf-8" ?>
<svg xmlns="http://www.w3.org/2000/svg" xmlns:ev="http://www.w3.org/2001/xml-events" xmlns:xlink="http://www.w3.org/1999/xlink" baseProfile="full" height="13mm" id="root" version="1.1" viewBox="0 0 214.27288 13" width="214.27288mm">
  <defs/>
  <rect height="6" style="fill: #ffffff; stroke-width:.125; stroke: #000000;" width="24.0411" x="1" y="1"/>
  <text alignment-baseline="baseline" dominant-baseline="hanging" font-family="OpenGost Type B TT" font-size="4.13" text-anchor="start" x="2" y="2">TYPE MARK</text>
  <rect height="6" style="fill: #ffffff; stroke-width:.125; stroke: #000000;" width="52.369719999999994" x="25.0411" y="1"/>
  <text alignment-baseline="baseline" dominant-baseline="hanging" font-family="OpenGost Type B TT" font-size="4.13" text-anchor="start" x="26.0411" y="2">NAME</text>
  <rect height="6" style="fill: #ffffff; stroke-width:.125; stroke: #000000;" width="14.52118" x="77.41082" y="1"/>
  <text alignment-baseline="baseline" dominant-baseline="hanging" font-family="OpenGost Type B TT" font-size="4.13" text-anchor="start" x="78.41082" y="2">WIDTH</text>
  <rect height="6" style="fill: #ffffff; stroke-width:.125; stroke: #000000;" width="16.4211" x="91.932" y="1"/>
  <text alignment-baseline="baseline" dominant-baseline="hanging" font-family="OpenGost Type B TT" font-size="4.13" text-anchor="start" x="92.932" y="2">HEIGHT</text>
  <rect height="6" style="fill: #ffffff; stroke-width:.125; stroke: #000000;" width="104.91977999999999" x="108.3531" y="1"/>
  <text alignment-baseline="baseline" dominant-baseline="hanging" font-family="OpenGost Type B TT" font-size="4.13" text-anchor="start" x="109.3531" y="2">TYPE COMMENTS</text>
  <rect height="6" style="fill: #ffffff; stroke-width:.125; stroke: #000000;" width="24.0411" x="1" y="7"/>
  <text alignment-baseline="baseline" dominant-baseline="hanging" font-family="OpenGost Type B TT" font-size="4.13" text-anchor="start" x="2" y="8">3070L</text>
  <rect height="6" style="fill: #ffffff; stroke-width:.125; stroke: #000000;" width="52.369719999999994" x="25.0411" y="7"/>
  <text alignment-baseline="baseline" dominant-baseline="hanging" font-family="OpenGost Type B TT" font-size="4.13" text-anchor="start" x="26.0411" y="8">WOOD FLUSH W/ HM FRAME</text>
  <rect height="6" style="fill: #ffffff; stroke-width:.125; stroke: #000000;" width="14.52118" x="77.41082" y="7"/>
  <text alignment-baseline="baseline" dominant-baseline="hanging" font-family="OpenGost Type B TT" font-size="4.13" text-anchor="start" x="78.41082" y="8">3' - 0&quot;</text>
  <rect height="6" style="fill: #ffffff; stroke-width:.125; stroke: #000000;" width="16.4211" x="91.932" y="7"/>
  <text alignment-baseline="baseline" dominant-baseline="hanging" font-family="OpenGost Type B TT" font-size="4.13" text-anchor="start" x="92.932" y="8">7' - 0&quot;</text>
  <rect height="6" style="fill: #ffffff; stroke-width:.125; stroke: #000000;" width="104.91977999999999" x="108.3531" y="7"/>
  <text alignment-baseline="baseline" dominant-baseline="hanging" font-family="OpenGost Type B TT" font-size="4.13" text-anchor="start" x="109.3531" y="8">MATCH EXISTING (HEIGHT, MATERIAL/FINISH, HARDWARE)</text>
</svg>
