<?xml version="1.0" encoding="UTF-8" standalone="no"?>
<svg
   id="root"
   version="1.1"
   viewBox="0 0 90.000001 10"
   height="10mm"
   width="90mm"
   xmlns="http://www.w3.org/2000/svg"
   xmlns:svg="http://www.w3.org/2000/svg"
   xmlns:rdf="http://www.w3.org/1999/02/22-rdf-syntax-ns#"
   xmlns:cc="http://creativecommons.org/ns#"
   xmlns:dc="http://purl.org/dc/elements/1.1/">
  <defs
     id="defs2" />
  <metadata
     id="metadata5">
    <rdf:RDF>
      <cc:Work
         rdf:about="">
        <dc:format>image/svg+xml</dc:format>
        <dc:type
           rdf:resource="http://purl.org/dc/dcmitype/StillImage" />
      </cc:Work>
    </rdf:RDF>
  </metadata>
  <g
     transform="translate(-27.82024,-96.649986)"
     id="layer1">
    <circle
       r="4.8499999"
       cy="101.64999"
       cx="32.82024"
       id="path853"
       style="fill:none;fill-opacity:1;stroke:#2c5573;stroke-width:0.3;stroke-linejoin:round;stroke-miterlimit:4;stroke-dasharray:none;stroke-opacity:1" />
    <path
       id="path855"
       d="m 37.67024,101.64999 80.15,-1e-5"
       style="fill:none;fill-rule:evenodd;stroke:#2c5573;stroke-width:0.264583px;stroke-linecap:butt;stroke-linejoin:miter;stroke-opacity:1" />
    <text
       id="text859"
       y="103.10933"
       x="32.822662"
       style="font-style:normal;font-variant:normal;font-weight:normal;font-stretch:normal;font-size:24.8028px;line-height:125%;font-family:Arial;-inkscape-font-specification:Arial;letter-spacing:0px;word-spacing:0px;fill:#000000;fill-opacity:1;stroke:none;stroke-width:0.264583px;stroke-linecap:butt;stroke-linejoin:miter;stroke-opacity:1"
       xml:space="preserve"><tspan
         style="font-style:normal;font-variant:normal;font-weight:normal;font-stretch:normal;font-size:4.96055px;font-family:'Century Gothic';-inkscape-font-specification:'Century Gothic';text-align:center;text-anchor:middle;stroke-width:0.264583px"
         y="103.10933"
         x="32.822662"
         id="tspan857">{{Identification}}</tspan></text>
    <text
       xml:space="preserve"
       style="font-style:normal;font-variant:normal;font-weight:normal;font-stretch:normal;font-size:17.7163px;line-height:125%;font-family:Arial;-inkscape-font-specification:Arial;letter-spacing:0px;word-spacing:0px;fill:#000000;fill-opacity:1;stroke:none;stroke-width:0.264583px;stroke-linecap:butt;stroke-linejoin:miter;stroke-opacity:1"
       x="39.12896"
       y="100.19173"
       id="text863"><tspan
         id="tspan861"
         x="39.12896"
         y="100.19173"
         style="font-style:normal;font-variant:normal;font-weight:normal;font-stretch:normal;font-size:3.54325px;font-family:'Century Gothic';-inkscape-font-specification:'Century Gothic';text-align:start;text-anchor:start;stroke-width:0.264583px">{{Name}}</tspan></text>
    <text
       id="text867"
       y="105.0553"
       x="39.285267"
       style="font-style:normal;font-variant:normal;font-weight:normal;font-stretch:normal;font-size:17.7163px;line-height:125%;font-family:Arial;-inkscape-font-specification:Arial;letter-spacing:0px;word-spacing:0px;fill:#000000;fill-opacity:1;stroke:none;stroke-width:0.264583px;stroke-linecap:butt;stroke-linejoin:miter;stroke-opacity:1"
       xml:space="preserve"><tspan
         style="font-style:normal;font-variant:normal;font-weight:normal;font-stretch:normal;font-size:3.54325px;font-family:'Century Gothic';-inkscape-font-specification:'Century Gothic';text-align:start;text-anchor:start;stroke-width:0.264583px"
         y="105.0553"
         x="39.285267"
         id="tspan865">{{Scale}}</tspan></text>
  </g>
</svg>
