<?xml version="1.0" encoding="utf-8" ?>
<svg xmlns="http://www.w3.org/2000/svg" xmlns:ev="http://www.w3.org/2001/xml-events" xmlns:ifc="http://www.ifcopenshell.org/ns" xmlns:xlink="http://www.w3.org/1999/xlink" baseProfile="full" data-scale="1:20" height="175.00019073486328mm" id="root" version="1.1" viewBox="0 0 175.00019073486328 175.00019073486328" width="175.00019073486328mm">
  <defs/>
</svg>
