<?xml version="1.0" encoding="utf-8" ?>
<svg xmlns="http://www.w3.org/2000/svg" xmlns:ev="http://www.w3.org/2001/xml-events" xmlns:ifc="http://www.ifcopenshell.org/ns" xmlns:xlink="http://www.w3.org/1999/xlink" baseProfile="full" data-scale="3&quot;=1'-0&quot;" height="225.00061988830566mm" id="root" version="1.1" viewBox="0 0 225.00061988830566 225.00061988830566" width="225.00061988830566mm">
  <defs/>
  <path class="GlobalId-3YrNPJ2zb4y9NBqKih5Vur IfcAnnotation PredefinedType-SECTIONLEVEL" d="M -1383.921504020691 144.2503184080124 L -1608.927607536316 144.2503184080124"/>
  <text class="SECTIONLEVEL" dominant-baseline="baseline" text-anchor="start" x="-1383.9215087890625" y="140.7503204345703">RL +0&quot;</text>
  <text dominant-baseline="baseline" text-anchor="start" x="-1383.9215087890625" y="135.7503204345703">My Storey</text>
  <path class="GlobalId-0HsXpD2pX7MBkLM8WrM7NY IfcAnnotation PredefinedType-TEXTLEADER" d="M 85.41595935821533 92.90154464542866 L 77.92389392852783 92.90154464542866 L 54.92889881134033 109.93661847896874"/>
  <text dominant-baseline="middle" style="font-size: 0;" text-anchor="start" transform="rotate(-0.0, 85.41596221923828, 92.90154266357422)">
    <tspan class="GlobalId-0HsXpD2pX7MBkLM8WrM7NY IfcAnnotation PredefinedType-TEXTLEADER" dy="0em" x="85.41596221923828" y="92.90154266357422">5/8&quot; GYP. BD OR CEMENT BACKERBOARD ON WET WALL</tspan>
  </text>
  <path class="GlobalId-1pyn$52TDFVgnDLthge70y IfcAnnotation PredefinedType-TEXTLEADER" d="M 85.41595935821533 104.46442384272814 L 77.92389392852783 104.46442384272814 L 57.43134021759033 121.49949837476015"/>
  <text dominant-baseline="middle" style="font-size: 0;" text-anchor="start" transform="rotate(-0.0, 85.41596221923828, 104.46442413330078)">
    <tspan class="GlobalId-1pyn$52TDFVgnDLthge70y IfcAnnotation PredefinedType-TEXTLEADER" dy="0em" x="85.41596221923828" y="104.46442413330078">WALL BASE AS SCHEDULED</tspan>
  </text>
  <path class="GlobalId-1DPBfE2vrDuuxnzp$KeT2W IfcAnnotation PredefinedType-TEXTLEADER" d="M 85.41595935821533 126.84823479503393 L 77.92389392852783 126.84823479503393 L 54.92889881134033 143.88331025838852"/>
  <text dominant-baseline="middle" style="font-size: 0;" text-anchor="start" transform="rotate(-0.0, 85.41596221923828, 126.84823608398438)">
    <tspan class="GlobalId-1DPBfE2vrDuuxnzp$KeT2W IfcAnnotation PredefinedType-TEXTLEADER" dy="0em" x="85.41596221923828" y="126.84823608398438">ACOUSTICAL SEALANT OR FIRE SEALANT, IF RATED WALL</tspan>
  </text>
  <path class="GlobalId-3e3qyVWB52NxgwpdPg_fc2 IfcAnnotation PredefinedType-TEXTLEADER fill-bg" d="M 85.41595935821533 152.61326357722282 L 77.92389392852783 152.61326357722282 L 46.49841785430908 144.01140064001083"/>
  <text dominant-baseline="middle" style="font-size: 0;" text-anchor="start" transform="rotate(-0.0, 85.41596221923828, 152.61326599121094)">
    <tspan class="GlobalId-3e3qyVWB52NxgwpdPg_fc2 IfcAnnotation PredefinedType-TEXTLEADER fill-bg" filter="url(#fill-background)" x="85.41596221923828" y="152.61326599121094">METAL RUNNER CHANNEL; FASTEN @ 24&quot; O.C.</tspan>
    <tspan class="GlobalId-3e3qyVWB52NxgwpdPg_fc2 IfcAnnotation PredefinedType-TEXTLEADER fill-bg" dy="0em" x="85.41596221923828" y="152.61326599121094">METAL RUNNER CHANNEL; FASTEN @ 24&quot; O.C.</tspan>
  </text>
  <path class="GlobalId-2Z1N_aZRXAy8U8LuHm5cKU IfcAnnotation PredefinedType-TEXTLEADER fill-bg" d="M 85.41595935821533 163.14362734556198 L 77.92389392852783 163.14362734556198 L 46.49841785430908 154.54176440835"/>
  <text dominant-baseline="middle" style="font-size: 0;" text-anchor="start" transform="rotate(-0.0, 85.41596221923828, 163.1436309814453)">
    <tspan class="GlobalId-2Z1N_aZRXAy8U8LuHm5cKU IfcAnnotation PredefinedType-TEXTLEADER fill-bg" filter="url(#fill-background)" x="85.41596221923828" y="163.1436309814453">STRUCTURAL FLOOR</tspan>
    <tspan class="GlobalId-2Z1N_aZRXAy8U8LuHm5cKU IfcAnnotation PredefinedType-TEXTLEADER fill-bg" dy="0em" x="85.41596221923828" y="163.1436309814453">STRUCTURAL FLOOR</tspan>
  </text>
  <path class="GlobalId-0dOQ4VKwXE$eT85SPbXzgj IfcAnnotation PredefinedType-TEXTLEADER" d="M 85.41595935821533 49.462124705314636 L 77.92389392852783 49.462124705314636 L 48.21503162384033 62.24396824836731"/>
  <text dominant-baseline="middle" style="font-size: 0;" text-anchor="start" transform="rotate(-0.0, 85.41596221923828, 49.46212387084961)">
    <tspan class="GlobalId-0dOQ4VKwXE$eT85SPbXzgj IfcAnnotation PredefinedType-TEXTLEADER" dy="0em" x="85.41596221923828" y="49.46212387084961">2X BLOCKING - LOCATED AT GRAB BARS, WALL HUNG CABINETS, ETC</tspan>
  </text>
  <path class="GlobalId-09DAZPPtX3V8KT0zh7gccc IfcAnnotation PredefinedType-TEXTLEADER" d="M 85.41595935821533 77.62379199266434 L 77.92389392852783 77.62379199266434 L 41.76819324493408 97.07649517804384"/>
  <text dominant-baseline="middle" style="font-size: 0;" text-anchor="start" transform="rotate(-0.0, 85.41596221923828, 77.62379455566406)">
    <tspan class="GlobalId-09DAZPPtX3V8KT0zh7gccc IfcAnnotation PredefinedType-TEXTLEADER" dy="0em" x="85.41596221923828" y="77.62379455566406">METAL STUD - 20 GA. - 24&quot; O.C.</tspan>
  </text>
  <path class="GlobalId-1JUS0JeX15VQdEF61GTTnv IfcAnnotation PredefinedType-TEXTLEADER" d="M 85.41595935821533 115.92045170255005 L 77.92389392852783 115.92045170255005 L 41.53931140899658 142.22738333046436"/>
  <text dominant-baseline="middle" style="font-size: 0;" text-anchor="start" transform="rotate(-0.0, 85.41596221923828, 115.92045593261719)">
    <tspan class="GlobalId-1JUS0JeX15VQdEF61GTTnv IfcAnnotation PredefinedType-TEXTLEADER" dy="0em" x="85.41596221923828" y="115.92045593261719">METAL STUD - 20 GA. - 24&quot; O.C.</tspan>
  </text>
</svg>
