<svg xmlns="http://www.w3.org/2000/svg" xmlns:xlink="http://www.w3.org/1999/xlink" xmlns:ifc="http://www.ifcopenshell.org/ns" width="225.001mm" height="225.001mm" viewBox="0 0 225.001 225.001">
    <defs>
        <marker id="arrowend" markerWidth="10" markerHeight="7" refX="10" refY="3.5" orient="auto">
          <polygon points="0 0, 10 3.5, 0 7"/>
        </marker>
        <marker id="arrowstart" markerWidth="10" markerHeight="7" refX="0" refY="3.5" orient="auto">
          <polygon points="10 0, 0 3.5, 10 7"/>
        </marker>
    </defs>
    <g ifc:name="Elevation W1 - WALL DETAIL - SILL" class="section" ifc:plane="[[1.000000,0.000000,0.000000,0.000000],[0.000000,-0.000000,-1.000000,0.762000],[0.000000,1.000000,-0.000000,0.000000],[0.000000,0.000000,0.000000,1.000000]]" ifc:matrix3="[[250.000000,0.000000,-106271.433686],[0.000000,250.000000,144.250342],[0.000000,0.000000,1.000000]]">
        <g class="projection">
            <path d="M56.5855,143.457 L56.9343,144.25"/>
            <path d="M56.9343,142.663 L56.5855,143.457"/>
            <path d="M54.5531,142.663 L56.9343,142.663"/>
            <path d="M54.2043,143.457 L54.5531,142.663"/>
            <path d="M54.5531,144.25 L54.2043,143.457"/>
            <path d="M56.9343,144.25 L54.5531,144.25"/>
            <path d="M25.9754,142.663 L28.3567,142.663"/>
            <path d="M26.3242,143.457 L25.9754,142.663"/>
            <path d="M25.9754,144.25 L26.3242,143.457"/>
            <path d="M28.3567,144.25 L25.9754,144.25"/>
            <path d="M28.7055,143.457 L28.3567,144.25"/>
            <path d="M28.3567,142.663 L28.7055,143.457"/>
            <path d="M498.66,182.35 L193.86,182.35"/>
            <path d="M498.66,144.25 L498.66,182.35"/>
            <path d="M193.86,144.25 L498.66,144.25"/>
            <path d="M193.86,182.35 L193.86,144.25"/>
            <path d="M52.9641,49.2455 L52.9641,71.4705"/>
            <path d="M43.4391,49.2455 L52.9641,49.2455"/>
            <path d="M43.4391,71.4705 L43.4391,49.2455"/>
            <path d="M52.9641,71.4705 L43.4391,71.4705"/>
            <path d="M52.9641,49.2455 L52.9641,71.4705"/>
            <path d="M43.4391,49.2455 L52.9641,49.2455"/>
            <path d="M43.4391,71.4705 L43.4391,49.2455"/>
            <path d="M52.9641,71.4705 L43.4391,71.4705"/>
            <path d="M193.858,144.25 L193.858,182.35"/>
            <path d="M-110.942,144.25 L193.858,144.25"/>
            <path d="M-110.942,182.35 L-110.942,144.25"/>
            <path d="M193.858,182.35 L-110.942,182.35"/>
            <path d="M56.937,-466.937 L56.937,142.663"/>
            <path d="M52.9682,-466.937 L56.937,-466.937"/>
            <path d="M52.9682,142.663 L52.9682,-466.937"/>
            <path d="M56.937,142.663 L52.9682,142.663"/>
            <path d="M52.5722,133.932 L52.9691,133.932"/>
            <path d="M52.5722,143.853 L52.5722,133.932"/>
            <path d="M30.3472,143.853 L52.5722,143.853"/>
            <path d="M30.3472,133.932 L30.3472,143.853"/>
            <path d="M29.9503,133.932 L30.3472,133.932"/>
            <path d="M29.9503,144.25 L29.9503,133.932"/>
            <path d="M52.9691,144.25 L29.9503,144.25"/>
            <path d="M52.9691,133.932 L52.9691,144.25"/>
            <path d="M29.9442,-466.937 L29.9442,142.663"/>
            <path d="M25.9754,-466.937 L29.9442,-466.937"/>
            <path d="M25.9754,142.663 L25.9754,-466.937"/>
            <path d="M29.9442,142.663 L25.9754,142.663"/>
            <path d="M43.4391,71.4705 L43.4391,49.2455"/>
            <path d="M52.9641,71.4705 L43.4391,71.4705"/>
            <path d="M52.9641,49.2455 L52.9641,71.4705"/>
            <path d="M43.4391,49.2455 L52.9641,49.2455"/>
            <path d="M25.184,140.388 L25.184,119.372"/>
            <path d="M25.0591,141.337 L25.184,140.388"/>
            <path d="M24.6928,142.221 L25.0591,141.337"/>
            <path d="M24.1102,142.98 L24.6928,142.221"/>
            <path d="M23.3509,143.563 L24.1102,142.98"/>
            <path d="M23.7478,144.25 L23.3509,143.563"/>
            <path d="M24.6715,143.542 L23.7478,144.25"/>
            <path d="M25.3802,142.618 L24.6715,143.542"/>
            <path d="M25.8258,141.542 L25.3802,142.618"/>
            <path d="M25.9777,140.388 L25.8258,141.542"/>
            <path d="M25.9777,118.85 L25.9777,140.388"/>
            <path d="M25.7057,118.85 L25.9777,118.85"/>
            <path d="M25.3368,119.003 L25.7057,118.85"/>
            <path d="M25.184,119.372 L25.3368,119.003"/>
            <path d="M56.9332,140.388 L56.9332,118.85"/>
            <path d="M57.0851,141.542 L56.9332,140.388"/>
            <path d="M57.5307,142.618 L57.0851,141.542"/>
            <path d="M58.2395,143.542 L57.5307,142.618"/>
            <path d="M59.1631,144.25 L58.2395,143.542"/>
            <path d="M59.56,143.563 L59.1631,144.25"/>
            <path d="M58.8007,142.98 L59.56,143.563"/>
            <path d="M58.2181,142.221 L58.8007,142.98"/>
            <path d="M57.8518,141.337 L58.2181,142.221"/>
            <path d="M57.7269,140.388 L57.8518,141.337"/>
            <path d="M57.7269,119.372 L57.7269,140.388"/>
            <path d="M57.5741,119.003 L57.7269,119.372"/>
            <path d="M57.2052,118.85 L57.5741,119.003"/>
            <path d="M56.9332,118.85 L57.2052,118.85"/>
            <path d="M30.347,-468.794 L32.3314,-468.794"/>
            <path d="M32.3314,143.853 L32.3314,-468.794"/>
            <path d="M30.347,133.932 L30.347,-468.794"/>
            <path d="M50.5803,-468.794 L52.5647,-468.794"/>
            <path d="M52.5647,143.853 L52.5647,71.4705"/>
            <path d="M52.5647,49.2455 L52.5647,-468.794"/>
            <path d="M50.5803,143.853 L50.5803,71.4705"/>
            <path d="M50.5803,49.2455 L50.5803,-468.794"/>
            <path d="M32.3314,-468.794 L50.5803,-468.794"/>
        </g>
    <g id="product-b4dddefe-3e1a-4bdb-bae7-4897d892d07c-body" class="IfcBuildingElementProxy material-METALSTUD20GA24OC cut" ifc:name="Generic Models 581:Generic Models 65:1818199" ifc:guid="2qtTx_FXfBsxhdI9VOaj1y">
"/&gt;
        </g>
        <g class="2rX9n25hv2A8kRUSLhHFzw 11HWnit5n8RAgnWsb9URjE material-ACOUSTICALSEALANTORFIRESEALANTIFRATEDWALL IfcBuildingElementProxy materialCategory-sealant cut"><path d="M26.0,142.7 L26.3,143.5 L26.0,144.2 L28.4,144.2 L28.7,143.5 L28.4,142.7 Z"/></g><g class="2rX9n25hv2A8kRUSLhHFzw 11HWnit5n8RAgnWsb9URjE material-ACOUSTICALSEALANTORFIRESEALANTIFRATEDWALL IfcBuildingElementProxy materialCategory-sealant cut"><path d="M56.6,143.5 L56.9,142.7 L54.6,142.7 L54.2,143.5 L54.6,144.2 L56.9,144.2 Z"/></g><g class="materialCategory-concrete 2GZgCC6FnBCfOZKFwwEgkU material-STRUCTURALFLOOR 2XRmtHCVj6XBkljFZHV4iM IfcBuildingElementProxy cut"><path d="M-110.9,144.2 L-110.9,182.3 L193.9,182.3 L498.7,182.3 L498.7,144.2 L193.9,144.2 Z"/></g><g class="012d5hktLFof4g_NAhRzv4 0_v9xGDurBKuSwrUirFsYM material-2XBLOCKINGLOCATEDATGRABBARSWALLHUNGCABINETSETC materialCategory-wood1 IfcBuildingElementProxy cut 0kwkEa_E5DifvVlXlAIc4C"><path d="M53.0,71.5 L53.0,49.2 L43.4,49.2 L43.4,71.5 Z"/></g><g class="material-58GYPBDORCEMENTBACKERBOARDONWETWALL materialCategory-sand 0NNyMc4ArBh8vZkdBa_fof 1abk8pXQb1bPA_Sz0ojtZS IfcBuildingElementProxy cut"><path d="M29.9,-466.9 L26.0,-466.9 L26.0,142.7 L29.9,142.7 Z"/></g><g class="material-58GYPBDORCEMENTBACKERBOARDONWETWALL materialCategory-sand 0NNyMc4ArBh8vZkdBa_fof 1abk8pXQb1bPA_Sz0ojtZS IfcBuildingElementProxy cut"><path d="M56.9,-466.9 L53.0,-466.9 L53.0,142.7 L56.9,142.7 Z"/></g><g class="2JIGbAvO57yedhD2lHil5M material-METALRUNNERCHANNELFASTEN24OC cut IfcBuildingElementProxy"><path d="M53.0,133.9 L53.0,144.2 L30.0,144.2 L30.0,133.9 L30.3,133.9 L30.3,143.9 L52.6,143.9 L52.6,133.9 Z"/></g><g class="material-WALLBASEASSCHEDULED 3NFygIWXP6aRVWzYuDV4IQ 1o2sxHCT5EPQYoCaO9LpK7 IfcBuildingElementProxy cut"><path d="M25.2,140.4 L25.1,141.3 L24.7,142.2 L24.1,143.0 L23.4,143.6 L23.7,144.2 L24.7,143.5 L25.4,142.6 L25.8,141.5 L26.0,140.4 L26.0,118.8 L25.7,118.8 L25.3,119.0 L25.2,119.4 Z"/></g><g class="material-WALLBASEASSCHEDULED 3NFygIWXP6aRVWzYuDV4IQ 1o2sxHCT5EPQYoCaO9LpK7 IfcBuildingElementProxy cut"><path d="M56.9,140.4 L57.1,141.5 L57.5,142.6 L58.2,143.5 L59.2,144.2 L59.6,143.6 L58.8,143.0 L58.2,142.2 L57.9,141.3 L57.7,140.4 L57.7,119.4 L57.6,119.0 L57.2,118.8 L56.9,118.8 Z"/></g></g>
</svg>